15,20
1,1,1,1,1,1,1,1,1,1,1,1,1,1,1,1,1,1,1,1
1,1,1,1,1,1,1,1,1,1,1,1,1,1,1,1,1,1,1,1
1,1,1,1,1,1,1,1,1,1,1,1,1,1,1,1,1,1,1,1
1,1,1,1,1,1,1,1,1,1,1,1,1,1,1,1,1,1,1,1
1,1,1,1,3,4,4,4,4,4,4,4,4,4,5,1,1,1,1,1
1,1,1,1,9,1,1,1,1,1,1,1,1,1,6,1,1,1,1,1
1,1,1,1,9,1,1,1,1,1,1,1,1,1,6,1,1,1,1,1
1,1,1,1,9,1,1,1,1,1,1,1,1,1,6,1,1,1,1,1
1,1,1,1,9,1,1,1,1,1,1,1,1,1,6,1,1,1,1,1
1,1,1,1,9,1,1,1,1,1,1,1,1,1,6,1,1,1,1,1
1,1,1,1,9,1,1,1,1,1,1,1,1,1,6,1,1,1,1,1
1,1,1,1,8,4,4,4,4,1,1,4,4,4,7,1,1,1,1,1
1,1,1,1,1,1,1,1,1,1,1,1,1,1,1,1,1,1,1,1
1,1,1,1,1,1,1,1,1,1,1,1,1,1,1,1,1,1,1,1
1,1,1,1,1,1,1,1,1,1,1,1,1,1,1,1,1,1,1,1
